{
  "properties" : {
    "author" : [ {
      "properties" : {
        "location" : [ {
          "properties" : {
            "name" : [ "Melbourne, Victoria" ]
          },
          "type" : [ "h-card", "p-location" ]
        } ],
        "name" : [ "xssbnuny (furdu soon?)" ],
        "nickname" : [ "xssfox" ],
        "numeric-id" : [ "753927031293829121" ],
        "photo" : [ "https://pbs.twimg.com/profile_images/1498064909271433219/b2SQN3Uw.jpg" ],
        "published" : [ "2016-07-15T12:19:46+00:00" ],
        "uid" : [ "tag:twitter.com:xssfox" ],
        "url" : [ "https://twitter.com/xssfox", "http://sprocketfox.io/xssfox/" ]
      },
      "type" : [ "h-card" ]
    } ],
    "content" : [ {
      "html" : "<div style=\"white-space: pre\">Boss: your leave request broke the system\nMe: uh sigh\nBoss: why do you want to take the specific week off in 2038\nMe: for this exact reason</div>",
      "value" : "Boss: your leave request broke the system\nMe: uh sigh\nBoss: why do you want to take the specific week off in 2038\nMe: for this exact reason"
    } ],
    "published" : [ "2022-04-14T06:39:05+00:00" ],
    "uid" : [ "tag:twitter.com:1514493425248522245" ],
    "url" : [ "https://twitter.com/xssfox/status/1514493425248522245" ]
  },
  "type" : [ "h-entry" ]
}
